{
  "imports": {
    "@codemirror/basic-setup": "./@codemirror/basic-setup.js",
    "@codemirror/commands": "./@codemirror/commands.js",
    "@codemirror/lang-json": "./@codemirror/lang-json.js",
    "@codemirror/view": "./@codemirror/view.js",
    "axios": "./axios.js",
    "pretty-bytes": "./pretty-bytes.js"
  }
}